<?xml version="1.0" encoding="UTF-8" standalone="no"?>
<!-- Created with Inkscape (http://www.inkscape.org/) -->
<svg
   xmlns:dc="http://purl.org/dc/elements/1.1/"
   xmlns:cc="http://web.resource.org/cc/"
   xmlns:rdf="http://www.w3.org/1999/02/22-rdf-syntax-ns#"
   xmlns:svg="http://www.w3.org/2000/svg"
   xmlns="http://www.w3.org/2000/svg"
   xmlns:sodipodi="http://sodipodi.sourceforge.net/DTD/sodipodi-0.dtd"
   xmlns:inkscape="http://www.inkscape.org/namespaces/inkscape"
   version="1.0"
   x="0.0000000"
   y="0.0000000"
   width="64.000000"
   height="64.000000"
   id="svg1350"
   sodipodi:version="0.32"
   inkscape:version="0.45"
   sodipodi:docname="subtitle.svg"
   sodipodi:docbase="/home/ds/src/dvb/gxine/hg/gxine/pixmaps"
   inkscape:output_extension="org.inkscape.output.svg.inkscape"
   sodipodi:modified="true">
  <metadata
     id="metadata7">
    <rdf:RDF>
      <cc:Work
         rdf:about="">
        <dc:format>image/svg+xml</dc:format>
        <dc:type
           rdf:resource="http://purl.org/dc/dcmitype/StillImage" />
      </cc:Work>
    </rdf:RDF>
  </metadata>
  <sodipodi:namedview
     inkscape:cy="37.849475"
     inkscape:cx="55.259528"
     inkscape:zoom="4"
     inkscape:window-height="594"
     inkscape:window-width="822"
     inkscape:pageshadow="2"
     inkscape:pageopacity="0.0"
     guidetolerance="10.0"
     gridtolerance="10.0"
     objecttolerance="10.0"
     borderopacity="1.0"
     bordercolor="#666666"
     pagecolor="#ffffff"
     id="base"
     inkscape:window-x="1400"
     inkscape:window-y="0"
     inkscape:current-layer="svg1350" />
  <defs
     id="defs1352" />
  <rect
     style="opacity:1;color:#000000;fill:#ffffff;fill-opacity:1;fill-rule:evenodd;stroke:#000000;stroke-width:4;stroke-linejoin:round;marker:none;marker-start:none;marker-mid:none;marker-end:none;stroke-miterlimit:4;stroke-dasharray:none;stroke-dashoffset:0;stroke-opacity:1;stroke-linecap:round;"
     id="rect2159"
     width="48"
     height="40"
     x="8"
     y="12"
     rx="8"
     ry="5" />
  <path
     style="opacity:1"
     d="M 27.31373,15.999997 L 40.305518,19.798198 L 40.361925,19.872998 L 40.361925,44.296202 C 40.361894,46.239002 39.158604,47.473402 36.752055,48.000003 L 35.736766,48.000003 C 33.066937,48.000003 31.732054,46.972202 31.732054,44.916602 L 31.732054,44.841203 C 31.732054,43.262003 32.841327,42.334403 35.059906,42.058802 L 35.793176,42.002602 C 36.8711,42.002602 37.917705,42.366202 38.933026,43.092402 L 38.933026,23.633602 L 28.629841,20.455998 L 28.629841,40.404602 C 28.629809,42.121203 27.689734,43.331403 25.809616,44.033203 L 24.549915,44.183803 L 24.061091,44.183803 C 21.353686,44.183803 19.999968,43.212002 20,41.269002 L 20,41.137802 C 19.999968,39.608202 21.065377,38.630603 23.196229,38.204403 L 24.00468,38.129602 C 25.120211,38.129602 26.179363,38.549003 27.182138,39.389202 L 27.182138,16.169397 L 27.31373,15.999997"
     id="flowRoot1892" />
</svg>
